mypip_tb.vcd
$date
	Fri Dec 20 20:40:35 2024
$end
$version
	Icarus Verilog
$end
$timescale
	1s
$end
$scope module TB $end
$var reg 1 ! clk $end
$var integer 32 " i [31:0] $end
$scope module sc1 $end
$var wire 1 # branchEnable $end
$var wire 1 ! clk $end
$var wire 5 $ writeRegWireWB [4:0] $end
$var wire 5 % writeRegWireMEM [4:0] $end
$var wire 5 & writeRegWireEX [4:0] $end
$var wire 5 ' writeRegWire [4:0] $end
$var wire 32 ( readData2MEM [31:0] $end
$var wire 32 ) readData2EX [31:0] $end
$var wire 32 * readData2 [31:0] $end
$var wire 32 + readData1EX [31:0] $end
$var wire 32 , readData1 [31:0] $end
$var wire 32 - outputSLL [31:0] $end
$var wire 32 . outputDataWB [31:0] $end
$var wire 32 / outputData [31:0] $end
$var wire 32 0 outSignEXTEX [31:0] $end
$var wire 32 1 outSignEXT [31:0] $end
$var wire 32 2 nextPCMEM [31:0] $end
$var wire 28 3 nextPCJump [27:0] $end
$var wire 32 4 nextPCID [31:0] $end
$var wire 32 5 nextPCEX [31:0] $end
$var wire 32 6 nextPCBranchMEM [31:0] $end
$var wire 32 7 nextPCBranch [31:0] $end
$var wire 32 8 nextPC [31:0] $end
$var wire 32 9 instrWireWB [31:0] $end
$var wire 32 : instrWireMEM [31:0] $end
$var wire 32 ; instrWireIDhazard [31:0] $end
$var wire 32 < instrWireID [31:0] $end
$var wire 32 = instrWireHazard [31:0] $end
$var wire 32 > instrWireEX [31:0] $end
$var wire 32 ? instrWire [31:0] $end
$var wire 1 @ dataStall $end
$var wire 1 A controlStall $end
$var wire 1 B ZeroOutMEM $end
$var wire 1 C ZeroOut $end
$var wire 32 D WBData [31:0] $end
$var wire 1 E RegWriteWB $end
$var wire 1 F RegWriteMEM $end
$var wire 1 G RegWriteEX $end
$var wire 1 H RegWrite $end
$var wire 1 I RegDestWB $end
$var wire 1 J RegDestMEM $end
$var wire 1 K RegDestEX $end
$var wire 1 L RegDest $end
$var wire 32 M PC [31:0] $end
$var wire 32 N NPCValue [31:0] $end
$var wire 32 O NPC1MEM [31:0] $end
$var wire 32 P NPC1EX [31:0] $end
$var wire 32 Q NPC1 [31:0] $end
$var wire 32 R NPC0 [31:0] $end
$var wire 1 S MemWriteWB $end
$var wire 1 T MemWriteMEM $end
$var wire 1 U MemWriteEX $end
$var wire 1 V MemWrite $end
$var wire 1 W MemToRegWB $end
$var wire 1 X MemToRegMEM $end
$var wire 1 Y MemToRegEX $end
$var wire 1 Z MemToReg $end
$var wire 1 [ MemReadWB $end
$var wire 1 \ MemReadMEM $end
$var wire 1 ] MemReadEX $end
$var wire 1 ^ MemRead $end
$var wire 1 _ JumpWB $end
$var wire 1 ` JumpMEM $end
$var wire 1 a JumpEX $end
$var wire 1 b Jump $end
$var wire 1 c BranchWB $end
$var wire 1 d BranchMEM $end
$var wire 1 e BranchEX $end
$var wire 1 f Branch $end
$var wire 1 g ALUSrcWB $end
$var wire 1 h ALUSrcMEM $end
$var wire 1 i ALUSrcEX $end
$var wire 32 j ALUSrc1 [31:0] $end
$var wire 1 k ALUSrc $end
$var wire 32 l ALUResultWB [31:0] $end
$var wire 32 m ALUResultMEM [31:0] $end
$var wire 32 n ALUResult [31:0] $end
$var wire 3 o ALUOp [2:0] $end
$var wire 4 p ALUCtrlWB [3:0] $end
$var wire 4 q ALUCtrlMEM [3:0] $end
$var wire 4 r ALUCtrlEX [3:0] $end
$var wire 4 s ALUCtrl [3:0] $end
$scope module p1 $end
$var wire 1 ! clock $end
$var wire 32 t iPC [31:0] $end
$var wire 32 u iIR [31:0] $end
$var wire 1 @ enable $end
$var reg 32 v oIR [31:0] $end
$var reg 32 w oPC [31:0] $end
$upscope $end
$scope module p2 $end
$var wire 1 ! clock $end
$var wire 1 x enable $end
$var wire 32 y iIR [31:0] $end
$var wire 32 z iPC [31:0] $end
$var wire 1 H iRegWrite $end
$var wire 1 L iRegDests $end
$var wire 5 { iRegDest [4:0] $end
$var wire 1 V iMemWrite $end
$var wire 1 Z iMemToReg $end
$var wire 1 ^ iMemRead $end
$var wire 1 b iJumps $end
$var wire 32 | iJump [31:0] $end
$var wire 1 f iBranchs $end
$var wire 32 } iBranch [31:0] $end
$var wire 32 ~ iB [31:0] $end
$var wire 1 k iALUSrc $end
$var wire 4 !" iALUCtrl [3:0] $end
$var wire 32 "" iA [31:0] $end
$var reg 32 #" oA [31:0] $end
$var reg 4 $" oALUCtrl [3:0] $end
$var reg 1 i oALUSrc $end
$var reg 32 %" oB [31:0] $end
$var reg 32 &" oBranch [31:0] $end
$var reg 1 e oBranchs $end
$var reg 32 '" oIR [31:0] $end
$var reg 32 (" oJump [31:0] $end
$var reg 1 a oJumps $end
$var reg 1 ] oMemRead $end
$var reg 1 Y oMemToReg $end
$var reg 1 U oMemWrite $end
$var reg 32 )" oPC [31:0] $end
$var reg 5 *" oRegDest [4:0] $end
$var reg 1 K oRegDests $end
$var reg 1 G oRegWrite $end
$upscope $end
$scope module p3 $end
$var wire 1 ! clock $end
$var wire 1 +" enable $end
$var wire 4 ," iALUCtrl [3:0] $end
$var wire 1 i iALUSrc $end
$var wire 32 -" iB [31:0] $end
$var wire 1 e iBranchs $end
$var wire 32 ." iIR [31:0] $end
$var wire 32 /" iJump [31:0] $end
$var wire 1 a iJumps $end
$var wire 1 ] iMemRead $end
$var wire 1 Y iMemToReg $end
$var wire 1 U iMemWrite $end
$var wire 32 0" iPC [31:0] $end
$var wire 5 1" iRegDest [4:0] $end
$var wire 1 K iRegDests $end
$var wire 1 G iRegWrite $end
$var wire 1 C iZero $end
$var wire 32 2" iResult [31:0] $end
$var wire 32 3" iBranch [31:0] $end
$var reg 4 4" oALUCtrl [3:0] $end
$var reg 1 h oALUSrc $end
$var reg 32 5" oB [31:0] $end
$var reg 32 6" oBranch [31:0] $end
$var reg 1 d oBranchs $end
$var reg 32 7" oIR [31:0] $end
$var reg 32 8" oJump [31:0] $end
$var reg 1 ` oJumps $end
$var reg 1 \ oMemRead $end
$var reg 1 X oMemToReg $end
$var reg 1 T oMemWrite $end
$var reg 32 9" oPC [31:0] $end
$var reg 5 :" oRegDest [4:0] $end
$var reg 1 J oRegDests $end
$var reg 1 F oRegWrite $end
$var reg 32 ;" oResult [31:0] $end
$var reg 1 B oZero $end
$upscope $end
$scope module p4 $end
$var wire 1 ! clock $end
$var wire 1 <" enable $end
$var wire 4 =" iALUCtrl [3:0] $end
$var wire 1 h iALUSrc $end
$var wire 1 d iBranchs $end
$var wire 32 >" iIR [31:0] $end
$var wire 1 ` iJumps $end
$var wire 1 \ iMemRead $end
$var wire 1 X iMemToReg $end
$var wire 1 T iMemWrite $end
$var wire 5 ?" iRegDest [4:0] $end
$var wire 1 J iRegDests $end
$var wire 1 F iRegWrite $end
$var wire 32 @" iResult [31:0] $end
$var wire 32 A" iB [31:0] $end
$var reg 4 B" oALUCtrl [3:0] $end
$var reg 1 g oALUSrc $end
$var reg 32 C" oB [31:0] $end
$var reg 1 c oBranchs $end
$var reg 32 D" oIR [31:0] $end
$var reg 1 _ oJumps $end
$var reg 1 [ oMemRead $end
$var reg 1 W oMemToReg $end
$var reg 1 S oMemWrite $end
$var reg 5 E" oRegDest [4:0] $end
$var reg 1 I oRegDests $end
$var reg 1 E oRegWrite $end
$var reg 32 F" oResult [31:0] $end
$upscope $end
$scope module u0 $end
$var wire 1 G" memread $end
$var wire 32 H" address [31:0] $end
$var reg 32 I" readdata [31:0] $end
$var reg 32 J" temp [31:0] $end
$var integer 32 K" i [31:0] $end
$upscope $end
$scope module u1 $end
$var wire 1 ! clk $end
$var wire 6 L" funct [5:0] $end
$var wire 6 M" opcode [5:0] $end
$var wire 32 N" IR [31:0] $end
$var parameter 6 O" Rtype $end
$var parameter 6 P" addi $end
$var parameter 6 Q" andi $end
$var parameter 6 R" beq $end
$var parameter 6 S" bne $end
$var parameter 6 T" j $end
$var parameter 6 U" lw $end
$var parameter 6 V" ori $end
$var parameter 6 W" slti $end
$var parameter 6 X" sw $end
$var reg 3 Y" ALUOp [2:0] $end
$var reg 1 k ALUSrc $end
$var reg 1 f Branch $end
$var reg 1 b Jump $end
$var reg 1 ^ MemRead $end
$var reg 1 Z MemToReg $end
$var reg 1 V MemWrite $end
$var reg 1 L RegDest $end
$var reg 1 H RegWrite $end
$upscope $end
$scope module u10 $end
$var wire 5 Z" a [4:0] $end
$var wire 5 [" b [4:0] $end
$var wire 1 L select $end
$var reg 5 \" y [4:0] $end
$upscope $end
$scope module u11 $end
$var wire 1 E RegWrite $end
$var wire 1 ! clk $end
$var wire 32 ]" readdata1 [31:0] $end
$var wire 32 ^" readdata2 [31:0] $end
$var wire 5 _" readreg1 [4:0] $end
$var wire 5 `" readreg2 [4:0] $end
$var wire 5 a" writereg [4:0] $end
$var wire 32 b" writedata [31:0] $end
$var integer 32 c" i [31:0] $end
$upscope $end
$scope module u12 $end
$var wire 32 d" a [31:0] $end
$var wire 32 e" b [31:0] $end
$var wire 1 i select $end
$var reg 32 f" y [31:0] $end
$upscope $end
$scope module u13 $end
$var wire 3 g" ALUOp [2:0] $end
$var wire 1 ! clk $end
$var wire 6 h" funct [5:0] $end
$var reg 4 i" ALUsignal [3:0] $end
$upscope $end
$scope module u14 $end
$var wire 4 j" aluoperation [3:0] $end
$var wire 32 k" data1 [31:0] $end
$var wire 32 l" data2 [31:0] $end
$var reg 1 m" gt $end
$var reg 1 n" lt $end
$var reg 32 o" result [31:0] $end
$var reg 1 C zero $end
$upscope $end
$scope module u15 $end
$var wire 32 p" address [31:0] $end
$var wire 1 \ memread $end
$var wire 1 T memwrite $end
$var wire 32 q" writedata [31:0] $end
$var wire 7 r" finalAddress [6:0] $end
$var reg 32 s" readdata [31:0] $end
$var integer 32 t" i [31:0] $end
$upscope $end
$scope module u16 $end
$var wire 32 u" a [31:0] $end
$var wire 32 v" b [31:0] $end
$var wire 1 W select $end
$var reg 32 w" y [31:0] $end
$upscope $end
$scope module u2 $end
$var wire 16 x" inData [15:0] $end
$var reg 32 y" outData [31:0] $end
$upscope $end
$scope module u20 $end
$var wire 4 z" part1 [3:0] $end
$var wire 28 {" part2 [27:0] $end
$var reg 32 |" result [31:0] $end
$upscope $end
$scope module u3 $end
$var wire 32 }" inData [31:0] $end
$var reg 32 ~" outData [31:0] $end
$upscope $end
$scope module u4 $end
$var wire 32 !# in1 [31:0] $end
$var wire 32 "# in2 [31:0] $end
$var reg 32 ## out [31:0] $end
$upscope $end
$scope module u5 $end
$var wire 32 $# in1 [31:0] $end
$var wire 32 %# in2 [31:0] $end
$var reg 32 &# out [31:0] $end
$upscope $end
$scope module u6 $end
$var wire 32 '# a [31:0] $end
$var wire 32 (# b [31:0] $end
$var wire 1 # select $end
$var reg 32 )# y [31:0] $end
$upscope $end
$scope module u7 $end
$var wire 26 *# inData [25:0] $end
$var reg 28 +# outData [27:0] $end
$upscope $end
$scope module u8 $end
$var wire 32 ,# a [31:0] $end
$var wire 32 -# b [31:0] $end
$var wire 1 ` select $end
$var reg 32 .# y [31:0] $end
$upscope $end
$scope module u9 $end
$var wire 1 ! clock $end
$var wire 32 /# in [31:0] $end
$var wire 1 @ enable $end
$var reg 32 0# out [31:0] $end
$upscope $end
$scope module u90 $end
$var wire 32 1# IRD [31:0] $end
$var wire 32 2# IREX [31:0] $end
$var wire 32 3# IRMEM [31:0] $end
$var wire 32 4# IRWB [31:0] $end
$var wire 1 E WWBs $end
$var wire 1 ! clk $end
$var wire 6 5# opcode [5:0] $end
$var wire 5 6# regWB [4:0] $end
$var wire 5 7# rs [4:0] $end
$var wire 5 8# rt [4:0] $end
$var reg 1 9# res $end
$var reg 1 :# ret $end
$var reg 1 @ stall $end
$var reg 1 ;# we1 $end
$var reg 1 <# we2 $end
$var reg 1 =# we3 $end
$var reg 5 ># ws1 [4:0] $end
$var reg 5 ?# ws2 [4:0] $end
$var reg 5 @# ws3 [4:0] $end
$upscope $end
$scope module u91 $end
$var wire 1 ! clk $end
$var wire 32 A# oldD [31:0] $end
$var wire 32 B# oldF [31:0] $end
$var wire 1 @ s1 $end
$var wire 1 A s2 $end
$var reg 32 C# newD [31:0] $end
$var reg 32 D# newF [31:0] $end
$upscope $end
$scope module u92 $end
$var wire 1 ! clk $end
$var wire 6 E# op1 [5:0] $end
$var wire 6 F# op2 [5:0] $end
$var wire 6 G# op3 [5:0] $end
$var reg 1 A stall $end
$upscope $end
$upscope $end
$upscope $end
$enddefinitions $end
$comment Show the parameter values. $end
$dumpall
b101011 X"
b1010 W"
b1101 V"
b100011 U"
b10 T"
b101 S"
b100 R"
b1100 Q"
b1000 P"
b0 O"
$end
#0
$dumpvars
b0 G#
b0 F#
b0 E#
bx D#
bx C#
bx B#
b0 A#
bx @#
bx ?#
bx >#
0=#
0<#
0;#
0:#
09#
b0 8#
b0 7#
bx 6#
b0 5#
b0 4#
b0 3#
b0 2#
b0 1#
b0 0#
bx /#
bx .#
bx -#
bx ,#
b0 +#
b0 *#
bx )#
bx (#
b0 '#
bx &#
bx %#
b0 $#
b100 ##
b0 "#
b100 !#
bx ~"
bx }"
b0 |"
b0 {"
b0 z"
b0 y"
b0 x"
bx w"
bx v"
bx u"
b1111111 t"
bx s"
bx r"
bx q"
bx p"
bx o"
xn"
xm"
bx l"
bx k"
bx j"
bx i"
b0 h"
bx g"
bx f"
bx e"
bx d"
b100000 c"
bx b"
bx a"
b0 `"
b0 _"
bx ^"
bx ]"
bx \"
b0 ["
b0 Z"
bx Y"
bx N"
bx M"
bx L"
b11111111 K"
b0 J"
bx I"
b0 H"
1G"
bx F"
bx E"
b0 D"
bx C"
bx B"
bx A"
bx @"
bx ?"
b0 >"
bx ="
1<"
bx ;"
bx :"
b0 9"
bx 8"
b0 7"
bx 6"
bx 5"
bx 4"
bx 3"
bx 2"
bx 1"
b0 0"
bx /"
b0 ."
bx -"
bx ,"
1+"
bx *"
b0 )"
bx ("
b0 '"
bx &"
bx %"
bx $"
bx #"
bx ""
bx !"
bx ~
b0 }
b0 |
bx {
b0 z
b0 y
1x
b0 w
b0 v
bx u
b100 t
bx s
bx r
bx q
bx p
bx o
bx n
bx m
bx l
xk
bx j
xi
xh
xg
xf
xe
xd
xc
xb
xa
x`
x_
x^
x]
x\
x[
xZ
xY
xX
xW
xV
xU
xT
xS
bx R
b0 Q
bx P
bx O
bx N
b0 M
xL
xK
xJ
xI
xH
xG
xF
xE
bx D
xC
xB
1A
1@
bx ?
b0 >
bx =
b0 <
bx ;
b0 :
b0 9
b100 8
bx 7
bx 6
b0 5
b0 4
b0 3
b0 2
b0 1
bx 0
bx /
bx .
bx -
bx ,
bx +
bx *
bx )
bx (
bx '
bx &
bx %
bx $
x#
b0 "
0!
$end
#3
b0xxxxxxxxxxxxxxxxxxxxxxxxxx00 Q
b0xxxxxxxxxxxxxxxxxxxxxxxxxx00 |
b0xxxxxxxxxxxxxxxxxxxxxxxxxx00 |"
bx00 3
bx00 {"
bx00 +#
bx 1
bx }
bx y"
b0 7
b0 3"
b0 &#
b0 s
b0 !"
b0 i"
bx *#
bx h"
bx x"
bx `"
bx _"
bx ["
bx Z"
bx E#
bx 5#
bx 8#
bx 7#
b0 -
b0 ~"
b0 %#
0b
0f
0Z
0V
0^
0k
0H
0L
b0 o
b0 Y"
b0 g"
b100 4
b100 w
b100 z
bx <
bx v
bx y
bx 1#
bx A#
b0 P
b0 ("
b0 /"
b0 0
b0 &"
b0 e"
b0 }"
b0 L"
b0 M"
b0 ;
b0 N"
b0 C#
bx ,
bx ""
bx ]"
bx *
bx ~
bx ^"
1!
#6
0!
b1 "
#9
bx00 -
bx00 ~"
bx00 %#
bx 7
bx 3"
bx &#
bx F#
0C
b0 O
b0 8"
b0 -#
b0 6
b0 6"
b0 (#
b0xxxxxxxxxxxxxxxxxxxxxxxxxx00 P
b0xxxxxxxxxxxxxxxxxxxxxxxxxx00 ("
b0xxxxxxxxxxxxxxxxxxxxxxxxxx00 /"
bx 0
bx &"
bx e"
bx }"
b100 5
b100 )"
b100 0"
b100 $#
bx >
bx '"
bx ."
bx 2#
b0 r
b0 $"
b0 ,"
b0 j"
0a
0e
0Y
0U
0]
0i
0G
0K
bx L"
bx M"
bx ;
bx N"
bx C#
1!
#12
0!
b10 "
#15
b101000010010010000000000001010 ?
b101000010010010000000000001010 I"
b101000010010010000000000001010 B#
b1 J"
b1000 8
b1000 t
b1000 ##
b100 M
b100 H"
b100 "#
b100 0#
b100 N
b100 .#
b100 /#
b100 R
b100 )#
b100 ,#
bx G#
0#
0B
b0xxxxxxxxxxxxxxxxxxxxxxxxxx00 O
b0xxxxxxxxxxxxxxxxxxxxxxxxxx00 8"
b0xxxxxxxxxxxxxxxxxxxxxxxxxx00 -#
bx 6
bx 6"
bx (#
b100 2
b100 9"
b100 '#
bx :
bx 7"
bx >"
bx 3#
b0 q
b0 4"
b0 ="
0`
0d
0X
0T
0\
0h
0F
0J
1!
#18
0!
b11 "
#21
b1001001000000000000101000 Q
b1001001000000000000101000 |
b1001001000000000000101000 |"
b1001001000000000000101000 3
b1001001000000000000101000 {"
b1001001000000000000101000 +#
b1010 1
b1010 }
b1010 y"
b1001 '
b1001 {
b1001 \"
b10010010000000000001010 *#
b1010 h"
b1010 x"
b1011010 *
b1011010 ~
b1011010 ^"
b1001 `"
b10100 ,
b10100 ""
b10100 ]"
b10 _"
b0 ["
b1001 Z"
b1010 E#
b1010 5#
b1001 8#
b10 7#
bx 9
bx D"
bx 4#
b0 p
b0 B"
0_
0c
0W
0S
0[
0g
0E
0I
b1000 4
b1000 w
b1000 z
b101000010010010000000000001010 <
b101000010010010000000000001010 v
b101000010010010000000000001010 y
b101000010010010000000000001010 1#
b101000010010010000000000001010 A#
b101000010010010000000000001010 =
b101000010010010000000000001010 u
b101000010010010000000000001010 D#
1!
#24
0!
b100 "
#27
b110000 7
b110000 3"
b110000 &#
1n"
0m"
b1101110 n
b1101110 2"
b1101110 o"
b101 s
b101 !"
b101 i"
b101000 -
b101000 ~"
b101000 %#
b1011010 j
b1011010 f"
b1011010 l"
b1010 F#
1k
1H
b111 o
b111 Y"
b111 g"
b1001001000000000000101000 P
b1001001000000000000101000 ("
b1001001000000000000101000 /"
b1010 0
b1010 &"
b1010 e"
b1010 }"
b1001 &
b1001 *"
b1001 1"
b1011010 )
b1011010 %"
b1011010 -"
b1011010 d"
b10100 +
b10100 #"
b10100 k"
b1000 5
b1000 )"
b1000 0"
b1000 $#
b101000010010010000000000001010 >
b101000010010010000000000001010 '"
b101000010010010000000000001010 ."
b101000010010010000000000001010 2#
b1010 L"
b1010 M"
19#
b101000010010010000000000001010 ;
b101000010010010000000000001010 N"
b101000010010010000000000001010 C#
1!
#30
0!
b101 "
#33
b110100010010100000000000001010 ?
b110100010010100000000000001010 I"
b110100010010100000000000001010 B#
b10 J"
b1100 8
b1100 t
b1100 ##
b1000 M
b1000 H"
b1000 "#
b1000 0#
b1101110 r"
b1000 N
b1000 .#
b1000 /#
b1000 R
b1000 )#
b1000 ,#
b1010 G#
0n"
1m"
b1 n
b1 2"
b1 o"
b1010 j
b1010 f"
b1010 l"
b1001001000000000000101000 O
b1001001000000000000101000 8"
b1001001000000000000101000 -#
b110000 6
b110000 6"
b110000 (#
b1001 %
b1001 :"
b1001 ?"
b1101110 m
b1101110 ;"
b1101110 @"
b1101110 p"
b1011010 (
b1011010 5"
b1011010 q"
b1000 2
b1000 9"
b1000 '#
b101000010010010000000000001010 :
b101000010010010000000000001010 7"
b101000010010010000000000001010 >"
b101000010010010000000000001010 3#
b101 r
b101 $"
b101 ,"
b101 j"
1i
1G
b1001 >#
1;#
1!
#36
0!
b110 "
#39
b1 r"
b1101110 D
b1101110 b"
b1101110 w"
b1100 4
b1100 w
b1100 z
b1 m
b1 ;"
b1 @"
b1 p"
b101 q
b101 4"
b101 ="
1h
1F
b1001 $
b1001 E"
b1001 a"
b1001 6#
b1101110 l
b1101110 F"
b1101110 u"
b101000010010010000000000001010 9
b101000010010010000000000001010 D"
b101000010010010000000000001010 4#
b1001 ?#
1<#
b110100010010100000000000001010 =
b110100010010100000000000001010 u
b110100010010100000000000001010 D#
1!
#42
0!
b111 "
#45
b1001010000000000000101000 Q
b1001010000000000000101000 |
b1001010000000000000101000 |"
b1001010000000000000101000 3
b1001010000000000000101000 {"
b1001010000000000000101000 +#
b1010 '
b1010 {
b1010 \"
b1 D
b1 b"
b1 w"
b110100 7
b110100 3"
b110100 &#
b10010100000000000001010 *#
b1100100 *
b1100100 ~
b1100100 ^"
b1010 `"
b1010 Z"
b1101 E#
b1101 5#
b1010 8#
b1 l
b1 F"
b1 u"
b101 p
b101 B"
1g
1E
b1100 5
b1100 )"
b1100 0"
b1100 $#
b110100010010100000000000001010 <
b110100010010100000000000001010 v
b110100010010100000000000001010 y
b110100010010100000000000001010 1#
b110100010010100000000000001010 A#
b1001 @#
1!
#48
0!
b1000 "
#51
b110000010010110000000000001010 ?
b110000010010110000000000001010 I"
b110000010010110000000000001010 B#
b11 J"
b10000 8
b10000 t
b10000 ##
b1100 M
b1100 H"
b1100 "#
b1100 0#
b1100 N
b1100 .#
b1100 /#
b11 s
b11 !"
b11 i"
b1101 F#
b1100 R
b1100 )#
b1100 ,#
b100 o
b100 Y"
b100 g"
b1001010000000000000101000 P
b1001010000000000000101000 ("
b1001010000000000000101000 /"
b1010 &
b1010 *"
b1010 1"
b1100100 )
b1100100 %"
b1100100 -"
b1100100 d"
b110100010010100000000000001010 >
b110100010010100000000000001010 '"
b110100010010100000000000001010 ."
b110100010010100000000000001010 2#
b110100 6
b110100 6"
b110100 (#
b1100 2
b1100 9"
b1100 '#
b1101 M"
1=#
b110100010010100000000000001010 ;
b110100010010100000000000001010 N"
b110100010010100000000000001010 C#
1!
#54
0!
b1001 "
#57
b1001011000000000000101000 Q
b1001011000000000000101000 |
b1001011000000000000101000 |"
b1001011000000000000101000 3
b1001011000000000000101000 {"
b1001011000000000000101000 +#
b1011 '
b1011 {
b1011 \"
b1101 G#
b11110 n
b11110 2"
b11110 o"
b10010110000000000001010 *#
b1101110 *
b1101110 ~
b1101110 ^"
b1011 `"
b1011 Z"
b1100 E#
b1100 5#
b1011 8#
b1001010000000000000101000 O
b1001010000000000000101000 8"
b1001010000000000000101000 -#
b1010 %
b1010 :"
b1010 ?"
b1100100 (
b1100100 5"
b1100100 q"
b110100010010100000000000001010 :
b110100010010100000000000001010 7"
b110100010010100000000000001010 >"
b110100010010100000000000001010 3#
b11 r
b11 $"
b11 ,"
b11 j"
b10000 4
b10000 w
b10000 z
b110000010010110000000000001010 <
b110000010010110000000000001010 v
b110000010010110000000000001010 y
b110000010010110000000000001010 1#
b110000010010110000000000001010 A#
b110000010010110000000000001010 =
b110000010010110000000000001010 u
b110000010010110000000000001010 D#
b1010 ?#
b1010 >#
1!
#60
0!
b1010 "
#63
b11110 r"
b10 s
b10 !"
b10 i"
b111000 7
b111000 3"
b111000 &#
b1100 F#
b11 o
b11 Y"
b11 g"
b1001011000000000000101000 P
b1001011000000000000101000 ("
b1001011000000000000101000 /"
b1011 &
b1011 *"
b1011 1"
b1101110 )
b1101110 %"
b1101110 -"
b1101110 d"
b10000 5
b10000 )"
b10000 0"
b10000 $#
b110000010010110000000000001010 >
b110000010010110000000000001010 '"
b110000010010110000000000001010 ."
b110000010010110000000000001010 2#
b11110 m
b11110 ;"
b11110 @"
b11110 p"
b11 q
b11 4"
b11 ="
b1010 $
b1010 E"
b1010 a"
b1010 6#
b110100010010100000000000001010 9
b110100010010100000000000001010 D"
b110100010010100000000000001010 4#
b1100 M"
b110000010010110000000000001010 ;
b110000010010110000000000001010 N"
b110000010010110000000000001010 C#
1!
#66
0!
b1011 "
#69
bx ?
bx I"
bx B#
b100 J"
b10100 8
b10100 t
b10100 ##
b10000 M
b10000 H"
b10000 "#
b10000 0#
b11110 D
b11110 b"
b11110 w"
b10000 N
b10000 .#
b10000 /#
b10000 R
b10000 )#
b10000 ,#
b1100 G#
1C
b0 n
b0 2"
b0 o"
b11110 l
b11110 F"
b11110 u"
b11 p
b11 B"
b1001011000000000000101000 O
b1001011000000000000101000 8"
b1001011000000000000101000 -#
b111000 6
b111000 6"
b111000 (#
b1011 %
b1011 :"
b1011 ?"
b1101110 (
b1101110 5"
b1101110 q"
b10000 2
b10000 9"
b10000 '#
b110000010010110000000000001010 :
b110000010010110000000000001010 7"
b110000010010110000000000001010 >"
b110000010010110000000000001010 3#
b10 r
b10 $"
b10 ,"
b10 j"
b1010 @#
b1011 ?#
b1011 >#
1!
#72
0!
b1100 "
#75
b0 r"
b10100 4
b10100 w
b10100 z
1B
b0 m
b0 ;"
b0 @"
b0 p"
b10 q
b10 4"
b10 ="
b1011 $
b1011 E"
b1011 a"
b1011 6#
b110000010010110000000000001010 9
b110000010010110000000000001010 D"
b110000010010110000000000001010 4#
bx =
bx u
bx D#
1!
#78
0!
b1101 "
#81
b0xxxxxxxxxxxxxxxxxxxxxxxxxx00 Q
b0xxxxxxxxxxxxxxxxxxxxxxxxxx00 |
b0xxxxxxxxxxxxxxxxxxxxxxxxxx00 |"
bx00 3
bx00 {"
bx00 +#
bx 1
bx }
bx y"
bx '
bx {
bx \"
b0 D
b0 b"
b0 w"
b111100 7
b111100 3"
b111100 &#
bx *#
bx h"
bx x"
bx `"
bx ,
bx ""
bx ]"
bx _"
bx ["
bx Z"
bx E#
bx 5#
bx 8#
bx 7#
b0 l
b0 F"
b0 u"
b10 p
b10 B"
b10100 5
b10100 )"
b10100 0"
b10100 $#
bx <
bx v
bx y
bx 1#
bx A#
bx *
bx ~
bx ^"
b1011 @#
1!
#84
0!
b1110 "
#87
b101 J"
b11000 8
b11000 t
b11000 ##
b10100 M
b10100 H"
b10100 "#
b10100 0#
bx 7
bx 3"
bx &#
b10100 N
b10100 .#
b10100 /#
bx00 -
bx00 ~"
bx00 %#
bx j
bx f"
bx l"
0C
bx n
bx 2"
bx o"
bx F#
b10100 R
b10100 )#
b10100 ,#
b0xxxxxxxxxxxxxxxxxxxxxxxxxx00 P
b0xxxxxxxxxxxxxxxxxxxxxxxxxx00 ("
b0xxxxxxxxxxxxxxxxxxxxxxxxxx00 /"
bx 0
bx &"
bx e"
bx }"
bx &
bx *"
bx 1"
bx )
bx %"
bx -"
bx d"
bx +
bx #"
bx k"
bx >
bx '"
bx ."
bx 2#
b111100 6
b111100 6"
b111100 (#
b10100 2
b10100 9"
b10100 '#
bx L"
bx M"
09#
bx ;
bx N"
bx C#
1!
#90
0!
b1111 "
#93
bx r"
bx G#
0B
b0xxxxxxxxxxxxxxxxxxxxxxxxxx00 O
b0xxxxxxxxxxxxxxxxxxxxxxxxxx00 8"
b0xxxxxxxxxxxxxxxxxxxxxxxxxx00 -#
bx 6
bx 6"
bx (#
bx %
bx :"
bx ?"
bx m
bx ;"
bx @"
bx p"
bx (
bx 5"
bx q"
bx :
bx 7"
bx >"
bx 3#
b11000 4
b11000 w
b11000 z
bx ?#
0;#
1!
#96
0!
b10000 "
#99
bx D
bx b"
bx w"
b11000 5
b11000 )"
b11000 0"
b11000 $#
bx $
bx E"
bx a"
bx 6#
bx l
bx F"
bx u"
bx 9
bx D"
bx 4#
0<#
1!
#102
0!
b10001 "
#105
b110 J"
b11100 8
b11100 t
b11100 ##
b11000 M
b11000 H"
b11000 "#
b11000 0#
b11000 N
b11000 .#
b11000 /#
b11000 R
b11000 )#
b11000 ,#
b11000 2
b11000 9"
b11000 '#
0=#
1!
#108
0!
b10010 "
#111
b11100 4
b11100 w
b11100 z
1!
#114
0!
b10011 "
#117
b11100 5
b11100 )"
b11100 0"
b11100 $#
1!
#120
0!
b10100 "
#123
b111 J"
b100000 8
b100000 t
b100000 ##
b11100 M
b11100 H"
b11100 "#
b11100 0#
b11100 N
b11100 .#
b11100 /#
b11100 R
b11100 )#
b11100 ,#
b11100 2
b11100 9"
b11100 '#
1!
#126
0!
b10101 "
#129
b100000 4
b100000 w
b100000 z
1!
#132
0!
b10110 "
#135
b100000 5
b100000 )"
b100000 0"
b100000 $#
1!
#138
0!
b10111 "
#141
b1000 J"
b100100 8
b100100 t
b100100 ##
b100000 M
b100000 H"
b100000 "#
b100000 0#
b100000 N
b100000 .#
b100000 /#
b100000 R
b100000 )#
b100000 ,#
b100000 2
b100000 9"
b100000 '#
1!
#144
0!
b11000 "
#147
b100100 4
b100100 w
b100100 z
1!
#150
0!
b11001 "
#153
b100100 5
b100100 )"
b100100 0"
b100100 $#
1!
#156
0!
b11010 "
#159
b1001 J"
b101000 8
b101000 t
b101000 ##
b100100 M
b100100 H"
b100100 "#
b100100 0#
b100100 N
b100100 .#
b100100 /#
b100100 R
b100100 )#
b100100 ,#
b100100 2
b100100 9"
b100100 '#
1!
#162
0!
b11011 "
#165
b101000 4
b101000 w
b101000 z
1!
#168
0!
b11100 "
#171
b101000 5
b101000 )"
b101000 0"
b101000 $#
1!
#174
0!
b11101 "
#177
b1010 J"
b101100 8
b101100 t
b101100 ##
b101000 M
b101000 H"
b101000 "#
b101000 0#
b101000 N
b101000 .#
b101000 /#
b101000 R
b101000 )#
b101000 ,#
b101000 2
b101000 9"
b101000 '#
1!
#180
0!
b11110 "
#183
b101100 4
b101100 w
b101100 z
1!
#186
0!
b11111 "
#189
b101100 5
b101100 )"
b101100 0"
b101100 $#
1!
#192
0!
b100000 "
#195
b0 ?
b0 I"
b0 B#
b1011 J"
b110000 8
b110000 t
b110000 ##
b101100 M
b101100 H"
b101100 "#
b101100 0#
b101100 N
b101100 .#
b101100 /#
b101100 R
b101100 )#
b101100 ,#
b101100 2
b101100 9"
b101100 '#
1!
#198
0!
b100001 "
